physics/3sem/hw/data_lab3_00/DS0009.CSV

Format,1.0B,
Memory Length,10000,
IntpDistance,0,
Trigger Address,4999,
Trigger Level,-2.000E-02,
Source,Math,
Vertical Units,V,
Vertical Units Div,0,
Vertical Units Extend Div,16,
Label, ,
Probe Type,0,
Probe Ratio,1.000E+00,
Vertical Scale,5.000E-01,
Vertical Position,0.000E+00,
Horizontal Units,S,
Horizontal Scale,1.000E-06,
Horizontal Position,0.000E+00,
Horizontal Mode,Main,
SincET Mode,Real Time,
Sampling Period,2.000E-09,
Horizontal Old Scale,1.000E-06,
Horizontal Old Position,0.000E+00,
Firmware,V1.23,
Mode,Fast,
Waveform Data,
-1,
-1,
-3,
-2,
-1,
-2,
-2,
0,
-1,
-1,
-1,
-1,
-1,
0,
-2,
-1,
0,
-1,
-1,
0,
-1,
0,
0,
0,
1,
1,
-2,
0,
1,
0,
0,
1,
1,
1,
1,
1,
1,
1,
0,
1,
2,
1,
0,
1,
1,
1,
1,
1,
2,
2,
0,
1,
2,
2,
1,
2,
3,
2,
2,
2,
2,
3,
1,
2,
3,
3,
1,
3,
3,
3,
2,
3,
4,
4,
2,
3,
4,
3,
2,
4,
3,
3,
3,
4,
3,
4,
3,
4,
5,
4,
3,
5,
4,
4,
4,
5,
5,
4,
4,
4,
5,
5,
4,
6,
5,
5,
5,
5,
5,
5,
5,
5,
6,
5,
5,
5,
6,
6,
6,
6,
6,
6,
5,
6,
7,
6,
6,
7,
7,
6,
6,
6,
6,
8,
6,
7,
7,
6,
6,
7,
7,
7,
7,
7,
8,
8,
7,
7,
8,
7,
7,
9,
8,
8,
8,
8,
8,
8,
7,
8,
9,
8,
8,
9,
8,
8,
9,
9,
9,
9,
8,
8,
9,
8,
8,
10,
9,
9,
9,
9,
9,
9,
8,
9,
10,
9,
8,
11,
9,
9,
10,
10,
10,
10,
9,
10,
11,
10,
9,
11,
11,
10,
10,
11,
11,
12,
10,
11,
11,
10,
9,
12,
10,
11,
11,
11,
12,
12,
10,
11,
12,
11,
11,
13,
11,
11,
12,
11,
11,
12,
11,
12,
13,
12,
11,
13,
11,
12,
12,
12,
13,
13,
11,
12,
13,
12,
12,
14,
12,
13,
13,
13,
13,
14,
13,
13,
14,
13,
12,
15,
13,
14,
14,
14,
14,
14,
12,
14,
14,
14,
13,
15,
14,
14,
14,
14,
14,
15,
13,
15,
15,
14,
14,
15,
14,
15,
15,
15,
15,
16,
14,
15,
16,
15,
14,
16,
15,
16,
16,
15,
15,
16,
14,
16,
16,
15,
15,
17,
15,
16,
16,
16,
16,
17,
14,
16,
16,
16,
16,
18,
16,
16,
16,
16,
16,
18,
15,
17,
17,
16,
15,
18,
16,
17,
18,
17,
17,
17,
15,
17,
17,
17,
16,
18,
17,
17,
17,
17,
17,
19,
15,
18,
18,
17,
16,
18,
16,
18,
18,
18,
18,
19,
16,
18,
18,
18,
17,
19,
18,
18,
18,
18,
18,
20,
17,
18,
19,
18,
17,
20,
17,
19,
19,
19,
19,
19,
18,
19,
19,
19,
17,
19,
19,
19,
19,
19,
18,
20,
19,
20,
20,
19,
18,
20,
19,
19,
20,
20,
20,
20,
18,
20,
20,
19,
19,
20,
20,
20,
20,
19,
19,
21,
18,
20,
20,
20,
20,
21,
19,
20,
20,
20,
20,
21,
19,
20,
20,
20,
21,
21,
20,
20,
21,
20,
20,
22,
20,
21,
21,
20,
20,
21,
19,
21,
21,
21,
21,
22,
19,
20,
21,
21,
21,
22,
21,
21,
21,
21,
20,
22,
19,
21,
22,
21,
21,
22,
20,
22,
22,
21,
21,
22,
20,
21,
21,
21,
21,
23,
21,
21,
22,
21,
21,
22,
20,
22,
22,
21,
22,
22,
20,
22,
23,
22,
21,
23,
21,
22,
22,
22,
21,
23,
22,
22,
22,
22,
21,
23,
21,
22,
23,
22,
22,
23,
22,
22,
22,
22,
23,
23,
20,
22,
22,
22,
23,
23,
22,
22,
23,
22,
22,
24,
21,
22,
23,
23,
22,
23,
22,
22,
23,
23,
23,
23,
21,
23,
23,
22,
23,
24,
23,
23,
23,
22,
22,
24,
21,
23,
23,
22,
23,
24,
22,
22,
23,
23,
23,
24,
21,
23,
23,
22,
22,
24,
22,
23,
23,
23,
23,
24,
21,
23,
23,
23,
22,
24,
22,
23,
23,
23,
22,
24,
21,
23,
23,
22,
22,
24,
23,
23,
23,
22,
22,
24,
21,
24,
24,
23,
22,
24,
22,
23,
23,
23,
23,
24,
21,
23,
23,
22,
22,
24,
23,
23,
23,
23,
22,
24,
21,
23,
23,
23,
22,
24,
22,
23,
24,
23,
23,
23,
20,
23,
23,
23,
23,
24,
22,
23,
23,
22,
22,
24,
21,
23,
23,
23,
22,
24,
22,
22,
23,
22,
22,
24,
21,
23,
23,
22,
22,
24,
22,
23,
23,
22,
21,
24,
21,
23,
23,
22,
22,
24,
22,
22,
23,
23,
23,
24,
21,
22,
22,
22,
22,
24,
22,
22,
23,
22,
21,
23,
21,
22,
22,
21,
21,
23,
20,
23,
23,
22,
21,
23,
20,
22,
22,
22,
22,
23,
21,
23,
22,
21,
21,
23,
20,
22,
22,
22,
21,
23,
22,
22,
22,
21,
21,
23,
21,
22,
22,
21,
20,
22,
21,
22,
22,
21,
21,
22,
21,
22,
22,
21,
21,
22,
21,
21,
21,
21,
21,
22,
20,
21,
21,
21,
21,
22,
21,
21,
21,
21,
21,
22,
19,
21,
21,
21,
20,
22,
19,
21,
21,
20,
20,
21,
19,
21,
21,
20,
20,
21,
20,
21,
21,
20,
19,
21,
18,
21,
21,
20,
19,
21,
19,
20,
20,
20,
20,
21,
19,
20,
20,
19,
19,
20,
19,
19,
20,
19,
19,
20,
18,
19,
20,
19,
19,
20,
18,
19,
19,
19,
19,
19,
18,
19,
19,
19,
18,
20,
19,
19,
19,
18,
18,
20,
17,
19,
19,
18,
18,
19,
17,
18,
19,
19,
19,
18,
17,
18,
18,
17,
17,
19,
17,
18,
18,
18,
18,
19,
17,
18,
18,
17,
17,
18,
16,
18,
18,
17,
17,
18,
16,
18,
18,
17,
17,
18,
16,
17,
17,
16,
16,
18,
15,
17,
17,
17,
16,
17,
15,
17,
17,
17,
16,
18,
15,
16,
16,
16,
16,
17,
16,
16,
16,
16,
15,
17,
14,
17,
17,
16,
15,
16,
15,
15,
16,
15,
15,
16,
14,
15,
15,
15,
15,
16,
15,
15,
15,
15,
14,
16,
13,
15,
15,
15,
13,
15,
14,
14,
14,
14,
14,
15,
13,
14,
14,
14,
13,
15,
15,
14,
14,
13,
13,
14,
13,
14,
14,
14,
12,
14,
13,
13,
13,
13,
13,
14,
12,
13,
13,
13,
12,
14,
12,
13,
12,
12,
12,
13,
12,
12,
13,
12,
11,
13,
11,
13,
12,
12,
11,
12,
10,
11,
12,
12,
10,
13,
11,
11,
11,
11,
11,
12,
10,
11,
12,
11,
10,
12,
10,
11,
11,
10,
10,
11,
9,
10,
11,
10,
10,
11,
10,
10,
10,
10,
10,
11,
9,
10,
10,
9,
8,
10,
9,
9,
10,
9,
9,
10,
8,
9,
9,
9,
8,
10,
9,
9,
9,
8,
8,
9,
7,
8,
9,
8,
7,
9,
7,
8,
8,
8,
8,
9,
7,
8,
8,
7,
7,
8,
8,
8,
7,
7,
6,
7,
7,
7,
8,
7,
7,
8,
6,
7,
7,
7,
6,
7,
5,
6,
6,
6,
6,
7,
6,
6,
6,
5,
5,
7,
5,
6,
6,
5,
4,
6,
5,
5,
6,
5,
5,
5,
4,
5,
5,
5,
5,
6,
4,
4,
5,
4,
4,
5,
3,
5,
5,
4,
3,
5,
3,
4,
4,
4,
4,
4,
2,
4,
4,
3,
3,
4,
3,
3,
3,
3,
3,
4,
1,
2,
3,
3,
2,
3,
2,
3,
3,
2,
3,
3,
1,
2,
2,
1,
1,
3,
2,
1,
1,
1,
1,
2,
1,
1,
2,
1,
0,
2,
0,
1,
1,
1,
1,
1,
0,
0,
1,
0,
0,
0,
0,
0,
0,
0,
0,
0,
-1,
0,
1,
0,
-1,
0,
-1,
-1,
-1,
-1,
0,
0,
-1,
-1,
-1,
-1,
-1,
-1,
-2,
-1,
-1,
-2,
-2,
-1,
-2,
-2,
-2,
-2,
-3,
-1,
-3,
-2,
-2,
-2,
-2,
-2,
-3,
-2,
-2,
-2,
-2,
-2,
-3,
-3,
-2,
-3,
-3,
-3,
-4,
-3,
-3,
-3,
-4,
-3,
-4,
-3,
-3,
-3,
-3,
-4,
-5,
-4,
-3,
-4,
-5,
-3,
-4,
-5,
-5,
-5,
-4,
-4,
-6,
-5,
-4,
-5,
-6,
-4,
-6,
-5,
-5,
-5,
-5,
-5,
-6,
-5,
-5,
-6,
-6,
-5,
-6,
-6,
-6,
-6,
-6,
-6,
-7,
-6,
-6,
-6,
-7,
-6,
-7,
-7,
-7,
-7,
-7,
-6,
-8,
-7,
-6,
-7,
-8,
-6,
-7,
-8,
-8,
-8,
-8,
-7,
-8,
-8,
-7,
-8,
-8,
-7,
-8,
-8,
-8,
-8,
-8,
-8,
-9,
-8,
-8,
-9,
-9,
-8,
-8,
-8,
-9,
-9,
-9,
-8,
-10,
-9,
-8,
-9,
-10,
-9,
-10,
-9,
-9,
-9,
-9,
-10,
-11,
-10,
-9,
-10,
-10,
-10,
-10,
-10,
-10,
-10,
-10,
-10,
-11,
-11,
-11,
-11,
-11,
-10,
-11,
-11,
-11,
-11,
-11,
-11,
-12,
-11,
-11,
-12,
-12,
-11,
-11,
-11,
-11,
-12,
-12,
-12,
-13,
-12,
-12,
-12,
-13,
-12,
-12,
-12,
-12,
-12,
-12,
-12,
-14,
-13,
-12,
-13,
-14,
-12,
-13,
-13,
-13,
-13,
-13,
-13,
-14,
-13,
-12,
-13,
-14,
-13,
-14,
-13,
-13,
-13,
-13,
-13,
-14,
-14,
-14,
-14,
-14,
-14,
-14,
-14,
-15,
-15,
-14,
-14,
-15,
-15,
-14,
-15,
-15,
-14,
-15,
-15,
-15,
-15,
-15,
-15,
-16,
-15,
-15,
-16,
-16,
-15,
-15,
-15,
-15,
-15,
-15,
-15,
-16,
-16,
-15,
-16,
-16,
-16,
-16,
-16,
-16,
-16,
-16,
-16,
-18,
-16,
-16,
-16,
-16,
-16,
-17,
-16,
-17,
-17,
-17,
-16,
-18,
-17,
-16,
-17,
-18,
-17,
-18,
-17,
-17,
-17,
-17,
-17,
-18,
-17,
-17,
-18,
-18,
-17,
-17,
-17,
-18,
-18,
-18,
-17,
-18,
-18,
-18,
-18,
-18,
-18,
-18,
-18,
-18,
-18,
-18,
-19,
-19,
-19,
-18,
-19,
-19,
-19,
-19,
-19,
-19,
-19,
-19,
-19,
-20,
-19,
-19,
-20,
-20,
-19,
-20,
-19,
-19,
-19,
-19,
-19,
-20,
-20,
-20,
-20,
-20,
-20,
-20,
-20,
-21,
-20,
-20,
-20,
-21,
-20,
-20,
-20,
-21,
-21,
-20,
-20,
-21,
-21,
-20,
-21,
-21,
-21,
-20,
-21,
-21,
-21,
-20,
-21,
-21,
-21,
-21,
-21,
-22,
-21,
-21,
-21,
-22,
-21,
-21,
-22,
-22,
-22,
-21,
-22,
-23,
-22,
-21,
-22,
-22,
-21,
-22,
-22,
-22,
-22,
-22,
-22,
-23,
-22,
-21,
-22,
-22,
-22,
-23,
-23,
-22,
-22,
-22,
-23,
-23,
-23,
-22,
-23,
-23,
-23,
-22,
-23,
-23,
-23,
-23,
-22,
-23,
-23,
-23,
-23,
-24,
-23,
-23,
-23,
-23,
-23,
-23,
-23,
-24,
-24,
-23,
-23,
-23,
-23,
-23,
-23,
-23,
-24,
-24,
-24,
-24,
-24,
-23,
-24,
-24,
-24,
-24,
-24,
-24,
-24,
-23,
-24,
-25,
-24,
-24,
-24,
-24,
-23,
-24,
-25,
-25,
-24,
-24,
-24,
-24,
-24,
-24,
-24,
-25,
-24,
-25,
-25,
-25,
-24,
-24,
-24,
-25,
-25,
-24,
-25,
-25,
-25,
-24,
-24,
-24,
-25,
-25,
-25,
-25,
-25,
-25,
-25,
-25,
-25,
-25,
-25,
-25,
-25,
-24,
-25,
-26,
-25,
-25,
-26,
-26,
-25,
-25,
-25,
-25,
-26,
-26,
-25,
-26,
-26,
-25,
-26,
-26,
-25,
-26,
-26,
-25,
-25,
-25,
-26,
-26,
-26,
-26,
-26,
-26,
-26,
-25,
-26,
-26,
-26,
-26,
-26,
-26,
-26,
-25,
-26,
-26,
-25,
-26,
-26,
-26,
-26,
-25,
-26,
-26,
-26,
-26,
-26,
-26,
-26,
-26,
-26,
-26,
-26,
-26,
-26,
-26,
-26,
-26,
-26,
-26,
-26,
-26,
-26,
-26,
-26,
-26,
-26,
-26,
-26,
-26,
-26,
-27,
-26,
-26,
-26,
-26,
-26,
-26,
-27,
-27,
-27,
-26,
-27,
-27,
-26,
-26,
-26,
-26,
-26,
-26,
-26,
-27,
-27,
-26,
-27,
-27,
-27,
-26,
-26,
-26,
-26,
-26,
-27,
-27,
-27,
-26,
-27,
-27,
-26,
-26,
-26,
-26,
-26,
-26,
-26,
-27,
-27,
-26,
-27,
-27,
-26,
-26,
-27,
-27,
-27,
-26,
-27,
-27,
-27,
-26,
-27,
-27,
-27,
-27,
-26,
-26,
-26,
-26,
-27,
-27,
-27,
-26,
-27,
-27,
-26,
-26,
-27,
-27,
-26,
-26,
-27,
-27,
-27,
-26,
-27,
-27,
-26,
-26,
-26,
-26,
-26,
-26,
-27,
-27,
-27,
-26,
-27,
-27,
-26,
-26,
-26,
-26,
-26,
-26,
-26,
-26,
-26,
-26,
-27,
-27,
-27,
-26,
-26,
-26,
-26,
-26,
-26,
-26,
-26,
-26,
-27,
-27,
-26,
-26,
-26,
-26,
-26,
-26,
-26,
-26,
-26,
-25,
-26,
-26,
-26,
-26,
-26,
-26,
-26,
-26,
-26,
-26,
-26,
-26,
-26,
-26,
-26,
-26,
-26,
-26,
-26,
-26,
-26,
-26,
-26,
-25,
-26,
-26,
-26,
-26,
-26,
-26,
-26,
-25,
-26,
-26,
-26,
-26,
-26,
-26,
-26,
-25,
-26,
-26,
-26,
-26,
-26,
-26,
-26,
-25,
-25,
-25,
-26,
-26,
-26,
-26,
-26,
-25,
-25,
-25,
-25,
-25,
-25,
-25,
-25,
-25,
-25,
-25,
-25,
-25,
-25,
-25,
-25,
-25,
-25,
-25,
-25,
-25,
-25,
-25,
-25,
-24,
-25,
-25,
-25,
-24,
-25,
-25,
-25,
-24,
-25,
-25,
-25,
-25,
-25,
-25,
-24,
-24,
-24,
-25,
-25,
-25,
-25,
-24,
-24,
-24,
-24,
-24,
-24,
-24,
-24,
-25,
-24,
-23,
-24,
-24,
-24,
-24,
-24,
-24,
-24,
-23,
-24,
-24,
-24,
-24,
-24,
-23,
-23,
-23,
-24,
-24,
-24,
-23,
-23,
-23,
-23,
-23,
-23,
-23,
-23,
-23,
-23,
-23,
-23,
-23,
-23,
-24,
-23,
-24,
-24,
-23,
-23,
-23,
-23,
-23,
-23,
-23,
-23,
-23,
-22,
-22,
-22,
-22,
-22,
-22,
-23,
-23,
-22,
-22,
-22,
-22,
-22,
-22,
-22,
-22,
-22,
-22,
-22,
-22,
-22,
-22,
-22,
-22,
-22,
-22,
-22,
-22,
-22,
-22,
-22,
-22,
-22,
-21,
-22,
-22,
-21,
-21,
-21,
-21,
-21,
-21,
-21,
-21,
-21,
-21,
-21,
-21,
-21,
-20,
-20,
-20,
-21,
-21,
-21,
-21,
-21,
-21,
-21,
-21,
-20,
-21,
-20,
-20,
-20,
-20,
-20,
-21,
-20,
-20,
-20,
-21,
-20,
-19,
-19,
-19,
-20,
-20,
-20,
-20,
-20,
-19,
-20,
-20,
-20,
-19,
-19,
-19,
-19,
-19,
-19,
-20,
-19,
-19,
-19,
-19,
-19,
-18,
-19,
-19,
-19,
-19,
-18,
-20,
-18,
-18,
-18,
-18,
-18,
-18,
-18,
-18,
-18,
-18,
-18,
-19,
-18,
-17,
-18,
-18,
-18,
-17,
-17,
-17,
-17,
-17,
-17,
-18,
-17,
-16,
-17,
-17,
-17,
-17,
-17,
-17,
-17,
-17,
-17,
-18,
-17,
-16,
-17,
-17,
-17,
-16,
-16,
-16,
-16,
-17,
-16,
-16,
-16,
-16,
-17,
-17,
-16,
-16,
-16,
-16,
-16,
-15,
-15,
-16,
-16,
-15,
-16,
-16,
-15,
-15,
-15,
-15,
-15,
-15,
-15,
-15,
-15,
-14,
-15,
-16,
-15,
-15,
-15,
-15,
-14,
-14,
-15,
-15,
-14,
-14,
-14,
-15,
-14,
-13,
-14,
-14,
-14,
-14,
-13,
-15,
-14,
-13,
-14,
-14,
-13,
-14,
-13,
-14,
-14,
-13,
-13,
-14,
-13,
-13,
-13,
-14,
-13,
-12,
-13,
-13,
-13,
-12,
-12,
-13,
-13,
-12,
-12,
-13,
-12,
-12,
-12,
-12,
-11,
-11,
-12,
-13,
-12,
-11,
-11,
-13,
-11,
-11,
-12,
-12,
-12,
-11,
-11,
-12,
-11,
-10,
-11,
-11,
-10,
-11,
-11,
-11,
-11,
-10,
-10,
-11,
-10,
-10,
-10,
-10,
-10,
-10,
-10,
-10,
-10,
-10,
-10,
-10,
-10,
-9,
-10,
-10,
-9,
-10,
-9,
-9,
-9,
-9,
-9,
-10,
-9,
-9,
-9,
-9,
-8,
-8,
-8,
-8,
-9,
-9,
-8,
-9,
-8,
-8,
-8,
-9,
-8,
-8,
-8,
-7,
-7,
-7,
-7,
-8,
-7,
-7,
-8,
-8,
-7,
-7,
-7,
-7,
-7,
-6,
-7,
-8,
-7,
-6,
-7,
-7,
-6,
-6,
-6,
-6,
-6,
-5,
-6,
-7,
-6,
-6,
-6,
-7,
-5,
-5,
-5,
-5,
-5,
-5,
-5,
-6,
-5,
-5,
-5,
-6,
-4,
-5,
-5,
-5,
-4,
-4,
-5,
-5,
-5,
-4,
-4,
-6,
-4,
-4,
-4,
-4,
-4,
-4,
-3,
-4,
-4,
-3,
-4,
-5,
-3,
-4,
-3,
-4,
-3,
-3,
-3,
-4,
-3,
-3,
-3,
-4,
-2,
-2,
-3,
-3,
-3,
-2,
-2,
-3,
-2,
-2,
-2,
-2,
-1,
-2,
-2,
-2,
-2,
-1,
-2,
-2,
-2,
-1,
-2,
-2,
-1,
0,
-1,
-1,
-1,
-1,
0,
-1,
-1,
0,
-1,
-2,
0,
0,
-1,
-1,
0,
0,
1,
-1,
0,
0,
0,
0,
1,
1,
0,
0,
0,
0,
1,
0,
1,
1,
1,
0,
1,
1,
1,
1,
1,
2,
2,
1,
2,
3,
2,
0,
2,
2,
2,
2,
2,
2,
3,
1,
2,
3,
3,
1,
3,
3,
2,
2,
3,
3,
3,
2,
3,
3,
3,
3,
4,
3,
3,
3,
3,
3,
4,
3,
4,
4,
4,
2,
5,
4,
4,
4,
4,
5,
4,
3,
4,
5,
4,
3,
5,
5,
5,
4,
4,
5,
5,
4,
5,
5,
5,
4,
6,
5,
5,
6,
6,
6,
6,
5,
6,
6,
6,
6,
7,
6,
6,
6,
6,
6,
7,
6,
6,
7,
6,
6,
7,
7,
7,
7,
7,
7,
8,
6,
7,
8,
7,
7,
8,
8,
8,
8,
8,
8,
8,
7,
8,
9,
8,
8,
9,
8,
8,
9,
8,
8,
9,
8,
8,
9,
9,
9,
10,
10,
9,
8,
8,
9,
9,
8,
9,
10,
10,
8,
10,
9,
9,
9,
9,
10,
9,
9,
10,
11,
10,
9,
11,
11,
10,
10,
10,
11,
11,
10,
11,
11,
11,
9,
12,
10,
11,
11,
11,
11,
11,
10,
11,
12,
12,
11,
12,
12,
12,
11,
11,
11,
12,
11,
12,
12,
12,
11,
12,
12,
12,
12,
12,
13,
12,
11,
13,
13,
12,
12,
13,
13,
13,
13,
12,
12,
14,
13,
13,
14,
13,
12,
15,
13,
14,
14,
13,
13,
14,
12,
13,
14,
14,
13,
15,
14,
14,
13,
14,
14,
15,
13,
14,
15,
14,
14,
15,
13,
15,
15,
15,
15,
15,
13,
15,
15,
15,
14,
15,
15,
15,
15,
16,
15,
16,
14,
16,
15,
15,
14,
16,
15,
16,
15,
16,
16,
16,
14,
16,
16,
16,
16,
17,
16,
16,
16,
16,
16,
17,
15,
16,
17,
16,
16,
17,
16,
17,
17,
17,
17,
17,
16,
17,
17,
17,
16,
18,
17,
17,
17,
18,
17,
18,
16,
18,
18,
18,
16,
18,
16,
18,
17,
18,
17,
18,
16,
18,
18,
18,
16,
19,
17,
19,
18,
18,
17,
19,
17,
19,
18,
18,
17,
19,
17,
19,
18,
19,
19,
20,
17,
18,
19,
19,
18,
20,
19,
19,
18,
19,
18,
19,
18,
19,
19,
19,
18,
20,
19,
19,
20,
20,
19,
19,
18,
19,
19,
19,
19,
21,
20,
20,
20,
19,
19,
21,
20,
20,
21,
20,
20,
21,
19,
20,
20,
20,
20,
21,
19,
20,
20,
20,
20,
21,
20,
20,
21,
21,
20,
21,
19,
21,
21,
20,
20,
22,
20,
21,
21,
21,
21,
22,
19,
21,
21,
21,
21,
22,
21,
21,
22,
21,
20,
22,
20,
21,
22,
21,
21,
22,
20,
22,
22,
21,
21,
22,
20,
22,
21,
21,
21,
23,
21,
22,
22,
22,
21,
22,
21,
22,
22,
22,
21,
22,
21,
22,
22,
22,
22,
22,
20,
22,
22,
22,
22,
23,
22,
22,
23,
22,
21,
23,
21,
22,
22,
22,
22,
23,
22,
22,
22,
22,
22,
23,
22,
22,
22,
22,
23,
23,
22,
22,
23,
22,
22,
23,
21,
23,
23,
22,
21,
23,
22,
23,
23,
22,
22,
23,
21,
22,
23,
22,
22,
24,
22,
23,
23,
23,
22,
23,
22,
23,
24,
23,
22,
24,
22,
22,
23,
23,
23,
23,
21,
23,
23,
22,
22,
24,
23,
23,
23,
23,
22,
23,
22,
23,
23,
23,
22,
24,
22,
23,
23,
23,
22,
24,
22,
23,
23,
23,
23,
24,
23,
22,
22,
22,
22,
24,
22,
23,
24,
23,
22,
24,
22,
24,
23,
23,
22,
24,
22,
23,
23,
23,
22,
24,
22,
24,
23,
22,
22,
24,
22,
23,
23,
23,
22,
24,
22,
23,
23,
23,
23,
24,
21,
23,
23,
23,
22,
23,
22,
23,
23,
22,
22,
24,
22,
23,
23,
23,
22,
23,
21,
23,
22,
23,
22,
23,
21,
23,
23,
23,
22,
23,
23,
23,
23,
22,
22,
24,
21,
23,
23,
23,
22,
24,
22,
23,
23,
22,
22,
23,
21,
23,
22,
22,
22,
23,
22,
23,
22,
23,
21,
23,
21,
23,
23,
22,
22,
23,
21,
23,
22,
22,
22,
23,
21,
22,
22,
22,
21,
23,
22,
22,
22,
22,
22,
23,
21,
22,
22,
22,
21,
23,
21,
22,
22,
22,
21,
23,
20,
22,
21,
21,
21,
23,
22,
22,
22,
21,
21,
23,
20,
21,
22,
21,
21,
22,
20,
21,
21,
21,
21,
22,
20,
21,
21,
21,
20,
22,
21,
21,
21,
21,
21,
22,
20,
21,
21,
21,
20,
22,
20,
21,
20,
21,
21,
21,
19,
20,
20,
21,
20,
21,
20,
20,
21,
20,
19,
21,
19,
21,
21,
20,
19,
21,
20,
20,
20,
20,
20,
21,
19,
20,
20,
20,
19,
21,
20,
20,
20,
20,
19,
20,
18,
20,
20,
20,
19,
20,
19,
19,
19,
19,
18,
19,
18,
19,
19,
19,
18,
20,
19,
19,
19,
18,
18,
19,
18,
19,
19,
19,
18,
19,
18,
18,
19,
18,
18,
19,
17,
18,
19,
18,
17,
19,
18,
18,
18,
17,
17,
19,
17,
18,
19,
18,
18,
19,
17,
18,
18,
18,
18,
18,
16,
17,
17,
17,
17,
18,
17,
17,
17,
17,
16,
18,
16,
17,
17,
17,
16,
18,
16,
16,
17,
17,
16,
17,
15,
16,
17,
16,
16,
17,
17,
16,
16,
16,
15,
17,
16,
16,
16,
15,
15,
17,
15,
15,
16,
16,
15,
16,
14,
15,
16,
15,
15,
16,
15,
15,
15,
15,
14,
16,
15,
15,
16,
15,
14,
15,
14,
14,
15,
14,
14,
15,
14,
14,
15,
14,
14,
14,
14,
14,
14,
14,
13,
14,
14,
14,
14,
14,
13,
14,
13,
14,
13,
14,
13,
14,
12,
13,
13,
14,
12,
13,
12,
13,
12,
13,
12,
13,
12,
13,
13,
13,
11,
13,
11,
13,
12,
12,
11,
13,
11,
12,
12,
12,
11,
13,
12,
12,
11,
12,
11,
12,
10,
11,
12,
11,
10,
12,
11,
11,
11,
11,
11,
11,
10,
11,
11,
10,
10,
11,
10,
10,
10,
10,
10,
11,
10,
10,
10,
10,
8,
11,
10,
10,
10,
10,
10,
10,
8,
9,
10,
9,
9,
10,
9,
9,
9,
9,
8,
9,
8,
9,
9,
9,
7,
9,
8,
8,
8,
8,
8,
9,
7,
8,
8,
8,
7,
8,
8,
8,
8,
7,
7,
8,
7,
7,
8,
7,
7,
8,
6,
7,
7,
7,
6,
7,
6,
6,
7,
7,
6,
7,
6,
6,
6,
6,
6,
7,
5,
6,
6,
5,
5,
6,
6,
6,
6,
6,
5,
6,
5,
5,
5,
5,
5,
6,
5,
5,
5,
5,
4,
5,
4,
5,
5,
4,
4,
5,
3,
4,
4,
4,
5,
4,
3,
3,
4,
4,
3,
4,
3,
4,
3,
3,
3,
4,
2,
3,
3,
3,
2,
3,
2,
3,
3,
3,
3,
3,
1,
2,
2,
3,
2,
3,
2,
2,
2,
1,
1,
2,
1,
2,
2,
2,
1,
2,
1,
1,
1,
1,
2,
1,
0,
0,
1,
0,
0,
1,
0,
0,
0,
0,
0,
0,
0,
0,
1,
0,
-1,
0,
0,
-1,
-1,
-1,
-1,
0,
-1,
-1,
-1,
-1,
-1,
0,
-1,
-1,
-1,
-1,
-1,
-1,
-2,
-1,
-1,
-2,
-2,
-1,
-2,
-2,
-2,
-2,
-1,
-2,
-3,
-3,
-2,
-3,
-3,
-2,
-2,
-3,
-3,
-3,
-3,
-3,
-3,
-3,
-3,
-3,
-3,
-3,
-3,
-3,
-3,
-3,
-3,
-3,
-4,
-4,
-3,
-4,
-5,
-4,
-4,
-4,
-4,
-4,
-4,
-4,
-5,
-5,
-4,
-5,
-6,
-4,
-5,
-5,
-5,
-5,
-5,
-5,
-6,
-5,
-5,
-6,
-6,
-5,
-6,
-5,
-6,
-6,
-6,
-6,
-6,
-6,
-5,
-6,
-7,
-6,
-6,
-6,
-6,
-6,
-6,
-6,
-7,
-7,
-6,
-7,
-8,
-6,
-7,
-7,
-8,
-7,
-7,
-7,
-8,
-8,
-7,
-8,
-8,
-8,
-8,
-8,
-8,
-8,
-7,
-8,
-9,
-8,
-8,
-8,
-9,
-8,
-8,
-8,
-9,
-9,
-9,
-9,
-10,
-9,
-8,
-9,
-10,
-9,
-10,
-9,
-10,
-10,
-9,
-9,
-10,
-10,
-9,
-10,
-10,
-10,
-9,
-10,
-10,
-10,
-10,
-10,
-11,
-10,
-10,
-11,
-11,
-10,
-11,
-11,
-11,
-11,
-10,
-11,
-12,
-11,
-11,
-11,
-12,
-11,
-11,
-11,
-11,
-11,
-11,
-12,
-12,
-12,
-11,
-12,
-13,
-12,
-12,
-12,
-12,
-12,
-12,
-12,
-13,
-13,
-12,
-13,
-13,
-12,
-12,
-13,
-13,
-13,
-13,
-13,
-14,
-13,
-12,
-13,
-14,
-13,
-13,
-13,
-13,
-13,
-13,
-14,
-14,
-13,
-13,
-14,
-14,
-13,
-13,
-14,
-14,
-14,
-14,
-14,
-15,
-14,
-14,
-15,
-15,
-14,
-15,
-15,
-15,
-14,
-14,
-15,
-16,
-15,
-14,
-15,
-15,
-15,
-15,
-15,
-15,
-16,
-16,
-15,
-16,
-16,
-15,
-16,
-16,
-15,
-16,
-16,
-16,
-16,
-16,
-16,
-17,
-16,
-16,
-16,
-16,
-16,
-16,
-17,
-17,
-17,
-16,
-17,
-17,
-17,
-16,
-17,
-18,
-17,
-17,
-17,
-17,
-17,
-17,
-17,
-18,
-17,
-17,
-18,
-18,
-18,
-17,
-18,
-18,
-18,
-18,
-18,
-18,
-18,
-18,
-18,
-18,
-18,
-18,
-18,
-18,
-18,
-18,
-19,
-19,
-19,
-18,
-19,
-19,
-18,
-19,
-19,
-19,
-19,
-18,
-19,
-19,
-19,
-18,
-19,
-20,
-19,
-19,
-19,
-19,
-19,
-19,
-19,
-20,
-20,
-19,
-20,
-20,
-19,
-20,
-20,
-20,
-20,
-20,
-20,
-20,
-20,
-19,
-20,
-21,
-20,
-21,
-20,
-21,
-20,
-20,
-21,
-22,
-21,
-20,
-21,
-22,
-21,
-20,
-21,
-21,
-21,
-21,
-21,
-21,
-21,
-20,
-21,
-22,
-21,
-21,
-22,
-22,
-21,
-21,
-22,
-22,
-22,
-21,
-21,
-22,
-22,
-21,
-22,
-22,
-22,
-22,
-22,
-22,
-22,
-22,
-22,
-22,
-22,
-22,
-22,
-22,
-22,
-22,
-22,
-23,
-23,
-22,
-23,
-23,
-22,
-22,
-23,
-23,
-23,
-23,
-22,
-23,
-23,
-22,
-23,
-23,
-23,
-23,
-23,
-23,
-23,
-22,
-23,
-24,
-24,
-23,
-23,
-23,
-23,
-23,
-23,
-23,
-24,
-24,
-23,
-24,
-24,
-23,
-24,
-24,
-24,
-24,
-24,
-24,
-24,
-23,
-24,
-25,
-24,
-24,
-24,
-24,
-24,
-24,
-24,
-24,
-24,
-24,
-24,
-25,
-24,
-24,
-24,
-25,
-24,
-24,
-24,
-24,
-24,
-24,
-25,
-25,
-24,
-24,
-25,
-25,
-25,
-24,
-25,
-25,
-25,
-25,
-25,
-25,
-25,
-24,
-25,
-26,
-24,
-25,
-26,
-26,
-25,
-25,
-25,
-25,
-25,
-25,
-25,
-25,
-25,
-25,
-25,
-25,
-25,
-25,
-26,
-26,
-26,
-25,
-26,
-26,
-25,
-26,
-26,
-26,
-25,
-25,
-25,
-25,
-26,
-26,
-26,
-26,
-25,
-26,
-26,
-25,
-26,
-26,
-26,
-26,
-26,
-25,
-26,
-26,
-26,
-26,
-26,
-25,
-26,
-26,
-26,
-26,
-26,
-25,
-26,
-26,
-26,
-26,
-26,
-26,
-26,
-26,
-26,
-26,
-26,
-25,
-26,
-26,
-26,
-26,
-26,
-26,
-26,
-26,
-26,
-26,
-26,
-26,
-26,
-26,
-26,
-26,
-26,
-26,
-26,
-26,
-26,
-26,
-26,
-26,
-26,
-27,
-26,
-26,
-27,
-27,
-26,
-26,
-27,
-27,
-27,
-27,
-27,
-27,
-26,
-26,
-26,
-26,
-26,
-26,
-27,
-27,
-27,
-26,
-27,
-27,
-27,
-26,
-26,
-26,
-26,
-26,
-27,
-27,
-27,
-27,
-27,
-27,
-27,
-26,
-27,
-27,
-27,
-27,
-27,
-27,
-27,
-26,
-27,
-27,
-26,
-27,
-27,
-27,
-26,
-26,
-27,
-27,
-27,
-26,
-27,
-27,
-27,
-26,
-27,
-27,
-27,
-27,
-27,
-27,
-27,
-26,
-27,
-27,
-27,
-26,
-26,
-26,
-26,
-26,
-26,
-27,
-27,
-26,
-27,
-27,
-27,
-26,
-26,
-26,
-26,
-26,
-26,
-26,
-26,
-26,
-27,
-27,
-27,
-26,
-26,
-26,
-26,
-26,
-26,
-26,
-26,
-26,
-26,
-26,
-26,
-26,
-26,
-26,
-26,
-26,
-26,
-27,
-27,
-26,
-27,
-27,
-27,
-26,
-26,
-26,
-26,
-26,
-26,
-26,
-26,
-26,
-27,
-27,
-26,
-26,
-26,
-26,
-26,
-26,
-26,
-26,
-26,
-26,
-26,
-26,
-26,
-26,
-26,
-26,
-26,
-26,
-26,
-26,
-26,
-26,
-26,
-26,
-26,
-25,
-26,
-26,
-26,
-26,
-26,
-26,
-26,
-25,
-26,
-26,
-26,
-26,
-26,
-25,
-25,
-25,
-25,
-25,
-25,
-25,
-25,
-25,
-25,
-25,
-25,
-25,
-26,
-26,
-25,
-25,
-25,
-24,
-25,
-25,
-25,
-25,
-25,
-25,
-25,
-24,
-25,
-25,
-25,
-25,
-25,
-25,
-25,
-24,
-25,
-25,
-25,
-25,
-25,
-25,
-24,
-24,
-24,
-25,
-25,
-25,
-25,
-24,
-24,
-24,
-24,
-24,
-24,
-24,
-25,
-25,
-24,
-23,
-24,
-24,
-24,
-24,
-24,
-24,
-24,
-23,
-24,
-24,
-23,
-24,
-25,
-25,
-24,
-23,
-24,
-24,
-24,
-23,
-24,
-24,
-24,
-23,
-24,
-24,
-24,
-23,
-23,
-24,
-23,
-23,
-23,
-23,
-23,
-23,
-23,
-23,
-23,
-22,
-23,
-23,
-23,
-23,
-23,
-23,
-23,
-22,
-23,
-23,
-23,
-23,
-23,
